3.8533143023359245E-4,0.019629860677895614,7.558260994384901E-4,24045.0,472.0,23573.0,0.0,0.518156816824249,0.5182495536077324,103.63136336484979,103.64991072154648,224921
3.8533143023359245E-4,0.019629860677895614,7.558260994384901E-4,24045.0,472.0,23573.0,0.0,0.518156816824249,0.5182495536077324,103.63136336484979,103.64991072154648,227158
3.8533143023359245E-4,0.019629860677895614,7.558260994384901E-4,24045.0,472.0,23573.0,0.0,0.518156816824249,0.5182495536077324,103.63136336484979,103.64991072154648,221156
3.8533143023359245E-4,0.019629860677895614,7.558260994384901E-4,24045.0,472.0,23573.0,0.0,0.518156816824249,0.5182495536077324,103.63136336484979,103.64991072154648,237519
3.8533143023359245E-4,0.019629860677895614,7.558260994384901E-4,24045.0,472.0,23573.0,0.0,0.518156816824249,0.5182495536077324,103.63136336484979,103.64991072154648,229580
3.8533143023359245E-4,0.019629860677895614,7.558260994384901E-4,24045.0,472.0,23573.0,0.0,0.518156816824249,0.5182495536077324,103.63136336484979,103.64991072154648,222072
3.8533143023359245E-4,0.019629860677895614,7.558260994384901E-4,24045.0,472.0,23573.0,0.0,0.518156816824249,0.5182495536077324,103.63136336484979,103.64991072154648,219581
3.8533143023359245E-4,0.019629860677895614,7.558260994384901E-4,24045.0,472.0,23573.0,0.0,0.518156816824249,0.5182495536077324,103.63136336484979,103.64991072154648,222295
3.8533143023359245E-4,0.019629860677895614,7.558260994384901E-4,24045.0,472.0,23573.0,0.0,0.518156816824249,0.5182495536077324,103.63136336484979,103.64991072154648,227246
3.8533143023359245E-4,0.019629860677895614,7.558260994384901E-4,24045.0,472.0,23573.0,0.0,0.518156816824249,0.5182495536077324,103.63136336484979,103.64991072154648,223424
