0.9654772811388125,0.79758785610314,0.8703755703314691,24045.0,19178.0,4867.0,0.02883325941307022,0.1831678156519807,0.31560311742763136,36.63356313039614,63.120623485526274,160251
0.9654772811388125,0.79758785610314,0.8703755703314691,24045.0,19178.0,4867.0,0.02883325941307022,0.1831678156519807,0.31560311742763136,36.63356313039614,63.120623485526274,148646
0.9654772811388125,0.79758785610314,0.8703755703314691,24045.0,19178.0,4867.0,0.02883325941307022,0.1831678156519807,0.31560311742763136,36.63356313039614,63.120623485526274,151407
0.9654772811388125,0.79758785610314,0.8703755703314691,24045.0,19178.0,4867.0,0.02883325941307022,0.1831678156519807,0.31560311742763136,36.63356313039614,63.120623485526274,148306
0.9654772811388125,0.79758785610314,0.8703755703314691,24045.0,19178.0,4867.0,0.02883325941307022,0.1831678156519807,0.31560311742763136,36.63356313039614,63.120623485526274,152510
0.9654772811388125,0.79758785610314,0.8703755703314691,24045.0,19178.0,4867.0,0.02883325941307022,0.1831678156519807,0.31560311742763136,36.63356313039614,63.120623485526274,149259
0.9654772811388125,0.79758785610314,0.8703755703314691,24045.0,19178.0,4867.0,0.02883325941307022,0.1831678156519807,0.31560311742763136,36.63356313039614,63.120623485526274,152654
0.9654772811388125,0.79758785610314,0.8703755703314691,24045.0,19178.0,4867.0,0.02883325941307022,0.1831678156519807,0.31560311742763136,36.63356313039614,63.120623485526274,155004
0.9654772811388125,0.79758785610314,0.8703755703314691,24045.0,19178.0,4867.0,0.02883325941307022,0.1831678156519807,0.31560311742763136,36.63356313039614,63.120623485526274,149566
0.9654772811388125,0.79758785610314,0.8703755703314691,24045.0,19178.0,4867.0,0.02883325941307022,0.1831678156519807,0.31560311742763136,36.63356313039614,63.120623485526274,148407
