0.9611256100744423,0.9803701393221044,0.9706524967130062,24045.0,23573.0,472.0,0.0,0.30635733989063185,0.3114193992230771,61.27146797812637,62.28387984461542,74937
0.9611256100744423,0.9803701393221044,0.9706524967130062,24045.0,23573.0,472.0,0.0,0.30635733989063185,0.3114193992230771,61.27146797812637,62.28387984461542,74456
0.9611256100744423,0.9803701393221044,0.9706524967130062,24045.0,23573.0,472.0,0.0,0.30635733989063185,0.3114193992230771,61.27146797812637,62.28387984461542,73069
0.9611256100744423,0.9803701393221044,0.9706524967130062,24045.0,23573.0,472.0,0.0,0.30635733989063185,0.3114193992230771,61.27146797812637,62.28387984461542,77177
0.9611256100744423,0.9803701393221044,0.9706524967130062,24045.0,23573.0,472.0,0.0,0.30635733989063185,0.3114193992230771,61.27146797812637,62.28387984461542,74716
0.9611256100744423,0.9803701393221044,0.9706524967130062,24045.0,23573.0,472.0,0.0,0.30635733989063185,0.3114193992230771,61.27146797812637,62.28387984461542,73355
0.9611256100744423,0.9803701393221044,0.9706524967130062,24045.0,23573.0,472.0,0.0,0.30635733989063185,0.3114193992230771,61.27146797812637,62.28387984461542,78382
0.9611256100744423,0.9803701393221044,0.9706524967130062,24045.0,23573.0,472.0,0.0,0.30635733989063185,0.3114193992230771,61.27146797812637,62.28387984461542,77828
0.9611256100744423,0.9803701393221044,0.9706524967130062,24045.0,23573.0,472.0,0.0,0.30635733989063185,0.3114193992230771,61.27146797812637,62.28387984461542,70720
0.9611256100744423,0.9803701393221044,0.9706524967130062,24045.0,23573.0,472.0,0.0,0.30635733989063185,0.3114193992230771,61.27146797812637,62.28387984461542,76546
