0.9618818514140602,0.6112289457267623,0.7422673852357001,24045.0,14697.0,9348.0,0.0011590719230280427,0.3148990527443048,0.39233407313212637,62.97981054886096,78.46681462642528,77333
0.9618818514140602,0.6112289457267623,0.7422673852357001,24045.0,14697.0,9348.0,0.0011590719230280427,0.3148990527443048,0.39233407313212637,62.97981054886096,78.46681462642528,74447
0.9618818514140602,0.6112289457267623,0.7422673852357001,24045.0,14697.0,9348.0,0.0011590719230280427,0.3148990527443048,0.39233407313212637,62.97981054886096,78.46681462642528,76605
0.9618818514140602,0.6112289457267623,0.7422673852357001,24045.0,14697.0,9348.0,0.0011590719230280427,0.3148990527443048,0.39233407313212637,62.97981054886096,78.46681462642528,76443
0.9618818514140602,0.6112289457267623,0.7422673852357001,24045.0,14697.0,9348.0,0.0011590719230280427,0.3148990527443048,0.39233407313212637,62.97981054886096,78.46681462642528,71523
0.9618818514140602,0.6112289457267623,0.7422673852357001,24045.0,14697.0,9348.0,0.0011590719230280427,0.3148990527443048,0.39233407313212637,62.97981054886096,78.46681462642528,76805
0.9618818514140602,0.6112289457267623,0.7422673852357001,24045.0,14697.0,9348.0,0.0011590719230280427,0.3148990527443048,0.39233407313212637,62.97981054886096,78.46681462642528,73954
0.9618818514140602,0.6112289457267623,0.7422673852357001,24045.0,14697.0,9348.0,0.0011590719230280427,0.3148990527443048,0.39233407313212637,62.97981054886096,78.46681462642528,76798
0.9618818514140602,0.6112289457267623,0.7422673852357001,24045.0,14697.0,9348.0,0.0011590719230280427,0.3148990527443048,0.39233407313212637,62.97981054886096,78.46681462642528,73861
0.9618818514140602,0.6112289457267623,0.7422673852357001,24045.0,14697.0,9348.0,0.0011590719230280427,0.3148990527443048,0.39233407313212637,62.97981054886096,78.46681462642528,76675
