0.9645265763396563,0.9410272405905594,0.952280216849575,24045.0,22627.0,1418.0,0.06543622027146433,0.1684217092950815,0.2461279770305433,33.6843418590163,49.22559540610866,30530
0.9645265763396563,0.9410272405905594,0.952280216849575,24045.0,22627.0,1418.0,0.06543622027146433,0.1684217092950815,0.2461279770305433,33.6843418590163,49.22559540610866,31864
0.9645265763396563,0.9410272405905594,0.952280216849575,24045.0,22627.0,1418.0,0.06543622027146433,0.1684217092950815,0.2461279770305433,33.6843418590163,49.22559540610866,30508
0.9645265763396563,0.9410272405905594,0.952280216849575,24045.0,22627.0,1418.0,0.06543622027146433,0.1684217092950815,0.2461279770305433,33.6843418590163,49.22559540610866,30836
0.9645265763396563,0.9410272405905594,0.952280216849575,24045.0,22627.0,1418.0,0.06543622027146433,0.1684217092950815,0.2461279770305433,33.6843418590163,49.22559540610866,31274
0.9645265763396563,0.9410272405905594,0.952280216849575,24045.0,22627.0,1418.0,0.06543622027146433,0.1684217092950815,0.2461279770305433,33.6843418590163,49.22559540610866,32340
0.9645265763396563,0.9410272405905594,0.952280216849575,24045.0,22627.0,1418.0,0.06543622027146433,0.1684217092950815,0.2461279770305433,33.6843418590163,49.22559540610866,30498
0.9645265763396563,0.9410272405905594,0.952280216849575,24045.0,22627.0,1418.0,0.06543622027146433,0.1684217092950815,0.2461279770305433,33.6843418590163,49.22559540610866,30906
0.9645265763396563,0.9410272405905594,0.952280216849575,24045.0,22627.0,1418.0,0.06543622027146433,0.1684217092950815,0.2461279770305433,33.6843418590163,49.22559540610866,30893
0.9645265763396563,0.9410272405905594,0.952280216849575,24045.0,22627.0,1418.0,0.06543622027146433,0.1684217092950815,0.2461279770305433,33.6843418590163,49.22559540610866,30886
