0.9646316168529631,0.9432314410480349,0.9534924704699174,24045.0,22680.0,1365.0,0.06912747252279687,0.16852734456226062,0.24544816206029493,33.705468912452126,49.08963241205899,41405
0.9646316168529631,0.9432314410480349,0.9534924704699174,24045.0,22680.0,1365.0,0.06912747252279687,0.16852734456226062,0.24544816206029493,33.705468912452126,49.08963241205899,41389
0.9646316168529631,0.9432314410480349,0.9534924704699174,24045.0,22680.0,1365.0,0.06912747252279687,0.16852734456226062,0.24544816206029493,33.705468912452126,49.08963241205899,41405
0.9646316168529631,0.9432314410480349,0.9534924704699174,24045.0,22680.0,1365.0,0.06912747252279687,0.16852734456226062,0.24544816206029493,33.705468912452126,49.08963241205899,41516
0.9646316168529631,0.9432314410480349,0.9534924704699174,24045.0,22680.0,1365.0,0.06912747252279687,0.16852734456226062,0.24544816206029493,33.705468912452126,49.08963241205899,41727
0.9646316168529631,0.9432314410480349,0.9534924704699174,24045.0,22680.0,1365.0,0.06912747252279687,0.16852734456226062,0.24544816206029493,33.705468912452126,49.08963241205899,43137
0.9646316168529631,0.9432314410480349,0.9534924704699174,24045.0,22680.0,1365.0,0.06912747252279687,0.16852734456226062,0.24544816206029493,33.705468912452126,49.08963241205899,42704
0.9646316168529631,0.9432314410480349,0.9534924704699174,24045.0,22680.0,1365.0,0.06912747252279687,0.16852734456226062,0.24544816206029493,33.705468912452126,49.08963241205899,42388
0.9646316168529631,0.9432314410480349,0.9534924704699174,24045.0,22680.0,1365.0,0.06912747252279687,0.16852734456226062,0.24544816206029493,33.705468912452126,49.08963241205899,41443
0.9646316168529631,0.9432314410480349,0.9534924704699174,24045.0,22680.0,1365.0,0.06912747252279687,0.16852734456226062,0.24544816206029493,33.705468912452126,49.08963241205899,41871
