0.9645810038232298,0.9397379912663756,0.9516140954423594,24045.0,22596.0,1449.0,0.06571061204752486,0.16442295695571713,0.2449730571119024,32.884591391143424,48.99461142238048,49679
0.9645810038232298,0.9397379912663756,0.9516140954423594,24045.0,22596.0,1449.0,0.06571061204752486,0.16442295695571713,0.2449730571119024,32.884591391143424,48.99461142238048,49683
0.9645810038232298,0.9397379912663756,0.9516140954423594,24045.0,22596.0,1449.0,0.06571061204752486,0.16442295695571713,0.2449730571119024,32.884591391143424,48.99461142238048,50690
0.9645810038232298,0.9397379912663756,0.9516140954423594,24045.0,22596.0,1449.0,0.06571061204752486,0.16442295695571713,0.2449730571119024,32.884591391143424,48.99461142238048,50556
0.9645810038232298,0.9397379912663756,0.9516140954423594,24045.0,22596.0,1449.0,0.06571061204752486,0.16442295695571713,0.2449730571119024,32.884591391143424,48.99461142238048,48419
0.9645810038232298,0.9397379912663756,0.9516140954423594,24045.0,22596.0,1449.0,0.06571061204752486,0.16442295695571713,0.2449730571119024,32.884591391143424,48.99461142238048,50159
0.9645810038232298,0.9397379912663756,0.9516140954423594,24045.0,22596.0,1449.0,0.06571061204752486,0.16442295695571713,0.2449730571119024,32.884591391143424,48.99461142238048,48922
0.9645810038232298,0.9397379912663756,0.9516140954423594,24045.0,22596.0,1449.0,0.06571061204752486,0.16442295695571713,0.2449730571119024,32.884591391143424,48.99461142238048,51069
0.9645810038232298,0.9397379912663756,0.9516140954423594,24045.0,22596.0,1449.0,0.06571061204752486,0.16442295695571713,0.2449730571119024,32.884591391143424,48.99461142238048,49127
0.9645810038232298,0.9397379912663756,0.9516140954423594,24045.0,22596.0,1449.0,0.06571061204752486,0.16442295695571713,0.2449730571119024,32.884591391143424,48.99461142238048,49461
