0.9642670835468764,0.9349968808484093,0.9489702160685209,24045.0,22482.0,1563.0,0.05649714620671753,0.1590850488666898,0.24501545310520162,31.81700977333796,49.00309062104032,84068
0.9642670835468764,0.9349968808484093,0.9489702160685209,24045.0,22482.0,1563.0,0.05649714620671753,0.1590850488666898,0.24501545310520162,31.81700977333796,49.00309062104032,83329
0.9642670835468764,0.9349968808484093,0.9489702160685209,24045.0,22482.0,1563.0,0.05649714620671753,0.1590850488666898,0.24501545310520162,31.81700977333796,49.00309062104032,85277
0.9642670835468764,0.9349968808484093,0.9489702160685209,24045.0,22482.0,1563.0,0.05649714620671753,0.1590850488666898,0.24501545310520162,31.81700977333796,49.00309062104032,84369
0.9642670835468764,0.9349968808484093,0.9489702160685209,24045.0,22482.0,1563.0,0.05649714620671753,0.1590850488666898,0.24501545310520162,31.81700977333796,49.00309062104032,84945
0.9642670835468764,0.9349968808484093,0.9489702160685209,24045.0,22482.0,1563.0,0.05649714620671753,0.1590850488666898,0.24501545310520162,31.81700977333796,49.00309062104032,83566
0.9642670835468764,0.9349968808484093,0.9489702160685209,24045.0,22482.0,1563.0,0.05649714620671753,0.1590850488666898,0.24501545310520162,31.81700977333796,49.00309062104032,84662
0.9642670835468764,0.9349968808484093,0.9489702160685209,24045.0,22482.0,1563.0,0.05649714620671753,0.1590850488666898,0.24501545310520162,31.81700977333796,49.00309062104032,83556
0.9642670835468764,0.9349968808484093,0.9489702160685209,24045.0,22482.0,1563.0,0.05649714620671753,0.1590850488666898,0.24501545310520162,31.81700977333796,49.00309062104032,83876
0.9642670835468764,0.9349968808484093,0.9489702160685209,24045.0,22482.0,1563.0,0.05649714620671753,0.1590850488666898,0.24501545310520162,31.81700977333796,49.00309062104032,83030
