0.9648336533130413,0.9403202328966521,0.952018810067089,24045.0,22610.0,1435.0,0.07128570873723757,0.17429694323145037,0.24890550183938123,34.85938864629007,49.78110036787625,18409
0.9648336533130413,0.9403202328966521,0.952018810067089,24045.0,22610.0,1435.0,0.07128570873723757,0.17429694323145037,0.24890550183938123,34.85938864629007,49.78110036787625,19346
0.9648336533130413,0.9403202328966521,0.952018810067089,24045.0,22610.0,1435.0,0.07128570873723757,0.17429694323145037,0.24890550183938123,34.85938864629007,49.78110036787625,19116
0.9648336533130413,0.9403202328966521,0.952018810067089,24045.0,22610.0,1435.0,0.07128570873723757,0.17429694323145037,0.24890550183938123,34.85938864629007,49.78110036787625,19886
0.9648336533130413,0.9403202328966521,0.952018810067089,24045.0,22610.0,1435.0,0.07128570873723757,0.17429694323145037,0.24890550183938123,34.85938864629007,49.78110036787625,18473
0.9648336533130413,0.9403202328966521,0.952018810067089,24045.0,22610.0,1435.0,0.07128570873723757,0.17429694323145037,0.24890550183938123,34.85938864629007,49.78110036787625,18908
0.9648336533130413,0.9403202328966521,0.952018810067089,24045.0,22610.0,1435.0,0.07128570873723757,0.17429694323145037,0.24890550183938123,34.85938864629007,49.78110036787625,18421
0.9648336533130413,0.9403202328966521,0.952018810067089,24045.0,22610.0,1435.0,0.07128570873723757,0.17429694323145037,0.24890550183938123,34.85938864629007,49.78110036787625,18673
0.9648336533130413,0.9403202328966521,0.952018810067089,24045.0,22610.0,1435.0,0.07128570873723757,0.17429694323145037,0.24890550183938123,34.85938864629007,49.78110036787625,18374
0.9648336533130413,0.9403202328966521,0.952018810067089,24045.0,22610.0,1435.0,0.07128570873723757,0.17429694323145037,0.24890550183938123,34.85938864629007,49.78110036787625,18587
