0.9646028961681317,0.9414431274693283,0.952530519500944,24045.0,22637.0,1408.0,0.06730228837037058,0.17481499965341135,0.24871216829589232,34.96299993068227,49.74243365917847,23403
0.9646028961681317,0.9414431274693283,0.952530519500944,24045.0,22637.0,1408.0,0.06730228837037058,0.17481499965341135,0.24871216829589232,34.96299993068227,49.74243365917847,23403
0.9646028961681317,0.9414431274693283,0.952530519500944,24045.0,22637.0,1408.0,0.06730228837037058,0.17481499965341135,0.24871216829589232,34.96299993068227,49.74243365917847,23553
0.9646028961681317,0.9414431274693283,0.952530519500944,24045.0,22637.0,1408.0,0.06730228837037058,0.17481499965341135,0.24871216829589232,34.96299993068227,49.74243365917847,23911
0.9646028961681317,0.9414431274693283,0.952530519500944,24045.0,22637.0,1408.0,0.06730228837037058,0.17481499965341135,0.24871216829589232,34.96299993068227,49.74243365917847,24182
0.9646028961681317,0.9414431274693283,0.952530519500944,24045.0,22637.0,1408.0,0.06730228837037058,0.17481499965341135,0.24871216829589232,34.96299993068227,49.74243365917847,24235
0.9646028961681317,0.9414431274693283,0.952530519500944,24045.0,22637.0,1408.0,0.06730228837037058,0.17481499965341135,0.24871216829589232,34.96299993068227,49.74243365917847,23376
0.9646028961681317,0.9414431274693283,0.952530519500944,24045.0,22637.0,1408.0,0.06730228837037058,0.17481499965341135,0.24871216829589232,34.96299993068227,49.74243365917847,23593
0.9646028961681317,0.9414431274693283,0.952530519500944,24045.0,22637.0,1408.0,0.06730228837037058,0.17481499965341135,0.24871216829589232,34.96299993068227,49.74243365917847,23408
0.9646028961681317,0.9414431274693283,0.952530519500944,24045.0,22637.0,1408.0,0.06730228837037058,0.17481499965341135,0.24871216829589232,34.96299993068227,49.74243365917847,23332
