0.9644820020682906,0.933458099396964,0.948222087650487,24045.0,22445.0,1600.0,0.0597900412820403,0.1656410896236034,0.24824105698839596,33.12821792472068,49.64821139767919,29202
0.9644820020682906,0.933458099396964,0.948222087650487,24045.0,22445.0,1600.0,0.0597900412820403,0.1656410896236034,0.24824105698839596,33.12821792472068,49.64821139767919,29278
0.9644820020682906,0.933458099396964,0.948222087650487,24045.0,22445.0,1600.0,0.0597900412820403,0.1656410896236034,0.24824105698839596,33.12821792472068,49.64821139767919,29634
0.9644820020682906,0.933458099396964,0.948222087650487,24045.0,22445.0,1600.0,0.0597900412820403,0.1656410896236034,0.24824105698839596,33.12821792472068,49.64821139767919,28560
0.9644820020682906,0.933458099396964,0.948222087650487,24045.0,22445.0,1600.0,0.0597900412820403,0.1656410896236034,0.24824105698839596,33.12821792472068,49.64821139767919,30213
0.9644820020682906,0.933458099396964,0.948222087650487,24045.0,22445.0,1600.0,0.0597900412820403,0.1656410896236034,0.24824105698839596,33.12821792472068,49.64821139767919,29880
0.9644820020682906,0.933458099396964,0.948222087650487,24045.0,22445.0,1600.0,0.0597900412820403,0.1656410896236034,0.24824105698839596,33.12821792472068,49.64821139767919,28906
0.9644820020682906,0.933458099396964,0.948222087650487,24045.0,22445.0,1600.0,0.0597900412820403,0.1656410896236034,0.24824105698839596,33.12821792472068,49.64821139767919,28678
0.9644820020682906,0.933458099396964,0.948222087650487,24045.0,22445.0,1600.0,0.0597900412820403,0.1656410896236034,0.24824105698839596,33.12821792472068,49.64821139767919,28911
0.9644820020682906,0.933458099396964,0.948222087650487,24045.0,22445.0,1600.0,0.0597900412820403,0.1656410896236034,0.24824105698839596,33.12821792472068,49.64821139767919,29136
