0.9590085435296938,0.7881056352672073,0.8642952162056998,24045.0,18950.0,5095.0,-0.018223727742036722,0.3712112342210605,0.4240201115946295,74.2422468442121,84.8040223189259,26201
0.9590085435296938,0.7881056352672073,0.8642952162056998,24045.0,18950.0,5095.0,-0.018223727742036722,0.3712112342210605,0.4240201115946295,74.2422468442121,84.8040223189259,25547
0.9590085435296938,0.7881056352672073,0.8642952162056998,24045.0,18950.0,5095.0,-0.018223727742036722,0.3712112342210605,0.4240201115946295,74.2422468442121,84.8040223189259,25838
0.9590085435296938,0.7881056352672073,0.8642952162056998,24045.0,18950.0,5095.0,-0.018223727742036722,0.3712112342210605,0.4240201115946295,74.2422468442121,84.8040223189259,25835
0.9590085435296938,0.7881056352672073,0.8642952162056998,24045.0,18950.0,5095.0,-0.018223727742036722,0.3712112342210605,0.4240201115946295,74.2422468442121,84.8040223189259,25183
0.9590085435296938,0.7881056352672073,0.8642952162056998,24045.0,18950.0,5095.0,-0.018223727742036722,0.3712112342210605,0.4240201115946295,74.2422468442121,84.8040223189259,25135
0.9590085435296938,0.7881056352672073,0.8642952162056998,24045.0,18950.0,5095.0,-0.018223727742036722,0.3712112342210605,0.4240201115946295,74.2422468442121,84.8040223189259,25554
0.9590085435296938,0.7881056352672073,0.8642952162056998,24045.0,18950.0,5095.0,-0.018223727742036722,0.3712112342210605,0.4240201115946295,74.2422468442121,84.8040223189259,26075
0.9590085435296938,0.7881056352672073,0.8642952162056998,24045.0,18950.0,5095.0,-0.018223727742036722,0.3712112342210605,0.4240201115946295,74.2422468442121,84.8040223189259,25103
0.9590085435296938,0.7881056352672073,0.8642952162056998,24045.0,18950.0,5095.0,-0.018223727742036722,0.3712112342210605,0.4240201115946295,74.2422468442121,84.8040223189259,25881
