0.9590085435296938,0.7881056352672073,0.8642952162056998,24045.0,18950.0,5095.0,-0.018223727742036722,0.3712112342210605,0.4240201115946295,74.2422468442121,84.8040223189259,25455
0.9590085435296938,0.7881056352672073,0.8642952162056998,24045.0,18950.0,5095.0,-0.018223727742036722,0.3712112342210605,0.4240201115946295,74.2422468442121,84.8040223189259,25789
0.9590085435296938,0.7881056352672073,0.8642952162056998,24045.0,18950.0,5095.0,-0.018223727742036722,0.3712112342210605,0.4240201115946295,74.2422468442121,84.8040223189259,26313
0.9590085435296938,0.7881056352672073,0.8642952162056998,24045.0,18950.0,5095.0,-0.018223727742036722,0.3712112342210605,0.4240201115946295,74.2422468442121,84.8040223189259,25601
0.9590085435296938,0.7881056352672073,0.8642952162056998,24045.0,18950.0,5095.0,-0.018223727742036722,0.3712112342210605,0.4240201115946295,74.2422468442121,84.8040223189259,25784
0.9590085435296938,0.7881056352672073,0.8642952162056998,24045.0,18950.0,5095.0,-0.018223727742036722,0.3712112342210605,0.4240201115946295,74.2422468442121,84.8040223189259,25207
0.9590085435296938,0.7881056352672073,0.8642952162056998,24045.0,18950.0,5095.0,-0.018223727742036722,0.3712112342210605,0.4240201115946295,74.2422468442121,84.8040223189259,25198
0.9590085435296938,0.7881056352672073,0.8642952162056998,24045.0,18950.0,5095.0,-0.018223727742036722,0.3712112342210605,0.4240201115946295,74.2422468442121,84.8040223189259,25813
0.9590085435296938,0.7881056352672073,0.8642952162056998,24045.0,18950.0,5095.0,-0.018223727742036722,0.3712112342210605,0.4240201115946295,74.2422468442121,84.8040223189259,25200
0.9590085435296938,0.7881056352672073,0.8642952162056998,24045.0,18950.0,5095.0,-0.018223727742036722,0.3712112342210605,0.4240201115946295,74.2422468442121,84.8040223189259,25110
