0.961029491912769,0.9349552921605323,0.9477397999758236,24045.0,22481.0,1564.0,-0.010316917035888872,0.3507192515166157,0.3788989204965214,70.14385030332313,75.77978409930428,23169
0.961029491912769,0.9349552921605323,0.9477397999758236,24045.0,22481.0,1564.0,-0.010316917035888872,0.3507192515166157,0.3788989204965214,70.14385030332313,75.77978409930428,23161
0.961029491912769,0.9349552921605323,0.9477397999758236,24045.0,22481.0,1564.0,-0.010316917035888872,0.3507192515166157,0.3788989204965214,70.14385030332313,75.77978409930428,23735
0.961029491912769,0.9349552921605323,0.9477397999758236,24045.0,22481.0,1564.0,-0.010316917035888872,0.3507192515166157,0.3788989204965214,70.14385030332313,75.77978409930428,23263
0.961029491912769,0.9349552921605323,0.9477397999758236,24045.0,22481.0,1564.0,-0.010316917035888872,0.3507192515166157,0.3788989204965214,70.14385030332313,75.77978409930428,23538
0.961029491912769,0.9349552921605323,0.9477397999758236,24045.0,22481.0,1564.0,-0.010316917035888872,0.3507192515166157,0.3788989204965214,70.14385030332313,75.77978409930428,23161
0.961029491912769,0.9349552921605323,0.9477397999758236,24045.0,22481.0,1564.0,-0.010316917035888872,0.3507192515166157,0.3788989204965214,70.14385030332313,75.77978409930428,23320
0.961029491912769,0.9349552921605323,0.9477397999758236,24045.0,22481.0,1564.0,-0.010316917035888872,0.3507192515166157,0.3788989204965214,70.14385030332313,75.77978409930428,23640
0.961029491912769,0.9349552921605323,0.9477397999758236,24045.0,22481.0,1564.0,-0.010316917035888872,0.3507192515166157,0.3788989204965214,70.14385030332313,75.77978409930428,23741
0.961029491912769,0.9349552921605323,0.9477397999758236,24045.0,22481.0,1564.0,-0.010316917035888872,0.3507192515166157,0.3788989204965214,70.14385030332313,75.77978409930428,23247
