0.961029491912769,0.9349552921605323,0.9477397999758236,24045.0,22481.0,1564.0,-0.010316917035888872,0.3507192515166157,0.3788989204965214,70.14385030332313,75.77978409930428,45622
0.961029491912769,0.9349552921605323,0.9477397999758236,24045.0,22481.0,1564.0,-0.010316917035888872,0.3507192515166157,0.3788989204965214,70.14385030332313,75.77978409930428,45338
0.961029491912769,0.9349552921605323,0.9477397999758236,24045.0,22481.0,1564.0,-0.010316917035888872,0.3507192515166157,0.3788989204965214,70.14385030332313,75.77978409930428,45975
0.961029491912769,0.9349552921605323,0.9477397999758236,24045.0,22481.0,1564.0,-0.010316917035888872,0.3507192515166157,0.3788989204965214,70.14385030332313,75.77978409930428,44907
0.961029491912769,0.9349552921605323,0.9477397999758236,24045.0,22481.0,1564.0,-0.010316917035888872,0.3507192515166157,0.3788989204965214,70.14385030332313,75.77978409930428,45207
0.961029491912769,0.9349552921605323,0.9477397999758236,24045.0,22481.0,1564.0,-0.010316917035888872,0.3507192515166157,0.3788989204965214,70.14385030332313,75.77978409930428,45473
0.961029491912769,0.9349552921605323,0.9477397999758236,24045.0,22481.0,1564.0,-0.010316917035888872,0.3507192515166157,0.3788989204965214,70.14385030332313,75.77978409930428,45055
0.961029491912769,0.9349552921605323,0.9477397999758236,24045.0,22481.0,1564.0,-0.010316917035888872,0.3507192515166157,0.3788989204965214,70.14385030332313,75.77978409930428,45749
0.961029491912769,0.9349552921605323,0.9477397999758236,24045.0,22481.0,1564.0,-0.010316917035888872,0.3507192515166157,0.3788989204965214,70.14385030332313,75.77978409930428,45653
0.961029491912769,0.9349552921605323,0.9477397999758236,24045.0,22481.0,1564.0,-0.010316917035888872,0.3507192515166157,0.3788989204965214,70.14385030332313,75.77978409930428,45614
