0.961029491912769,0.9349552921605323,0.9477397999758236,24045.0,22481.0,1564.0,-0.010316917035888872,0.3507192515166157,0.3788989204965214,70.14385030332313,75.77978409930428,34703
0.961029491912769,0.9349552921605323,0.9477397999758236,24045.0,22481.0,1564.0,-0.010316917035888872,0.3507192515166157,0.3788989204965214,70.14385030332313,75.77978409930428,34744
0.961029491912769,0.9349552921605323,0.9477397999758236,24045.0,22481.0,1564.0,-0.010316917035888872,0.3507192515166157,0.3788989204965214,70.14385030332313,75.77978409930428,34775
0.961029491912769,0.9349552921605323,0.9477397999758236,24045.0,22481.0,1564.0,-0.010316917035888872,0.3507192515166157,0.3788989204965214,70.14385030332313,75.77978409930428,34496
0.961029491912769,0.9349552921605323,0.9477397999758236,24045.0,22481.0,1564.0,-0.010316917035888872,0.3507192515166157,0.3788989204965214,70.14385030332313,75.77978409930428,34649
0.961029491912769,0.9349552921605323,0.9477397999758236,24045.0,22481.0,1564.0,-0.010316917035888872,0.3507192515166157,0.3788989204965214,70.14385030332313,75.77978409930428,34270
0.961029491912769,0.9349552921605323,0.9477397999758236,24045.0,22481.0,1564.0,-0.010316917035888872,0.3507192515166157,0.3788989204965214,70.14385030332313,75.77978409930428,34761
0.961029491912769,0.9349552921605323,0.9477397999758236,24045.0,22481.0,1564.0,-0.010316917035888872,0.3507192515166157,0.3788989204965214,70.14385030332313,75.77978409930428,34755
0.961029491912769,0.9349552921605323,0.9477397999758236,24045.0,22481.0,1564.0,-0.010316917035888872,0.3507192515166157,0.3788989204965214,70.14385030332313,75.77978409930428,34615
0.961029491912769,0.9349552921605323,0.9477397999758236,24045.0,22481.0,1564.0,-0.010316917035888872,0.3507192515166157,0.3788989204965214,70.14385030332313,75.77978409930428,34285
