0.961029491912769,0.9349552921605323,0.9477397999758236,24045.0,22481.0,1564.0,-0.010316917035888872,0.3507192515166157,0.3788989204965214,70.14385030332313,75.77978409930428,34646
0.961029491912769,0.9349552921605323,0.9477397999758236,24045.0,22481.0,1564.0,-0.010316917035888872,0.3507192515166157,0.3788989204965214,70.14385030332313,75.77978409930428,34198
0.961029491912769,0.9349552921605323,0.9477397999758236,24045.0,22481.0,1564.0,-0.010316917035888872,0.3507192515166157,0.3788989204965214,70.14385030332313,75.77978409930428,34415
0.961029491912769,0.9349552921605323,0.9477397999758236,24045.0,22481.0,1564.0,-0.010316917035888872,0.3507192515166157,0.3788989204965214,70.14385030332313,75.77978409930428,35374
0.961029491912769,0.9349552921605323,0.9477397999758236,24045.0,22481.0,1564.0,-0.010316917035888872,0.3507192515166157,0.3788989204965214,70.14385030332313,75.77978409930428,34609
0.961029491912769,0.9349552921605323,0.9477397999758236,24045.0,22481.0,1564.0,-0.010316917035888872,0.3507192515166157,0.3788989204965214,70.14385030332313,75.77978409930428,35099
0.961029491912769,0.9349552921605323,0.9477397999758236,24045.0,22481.0,1564.0,-0.010316917035888872,0.3507192515166157,0.3788989204965214,70.14385030332313,75.77978409930428,34165
0.961029491912769,0.9349552921605323,0.9477397999758236,24045.0,22481.0,1564.0,-0.010316917035888872,0.3507192515166157,0.3788989204965214,70.14385030332313,75.77978409930428,34056
0.961029491912769,0.9349552921605323,0.9477397999758236,24045.0,22481.0,1564.0,-0.010316917035888872,0.3507192515166157,0.3788989204965214,70.14385030332313,75.77978409930428,34702
0.961029491912769,0.9349552921605323,0.9477397999758236,24045.0,22481.0,1564.0,-0.010316917035888872,0.3507192515166157,0.3788989204965214,70.14385030332313,75.77978409930428,34737
